module github.com/gmolveau/echotemplate

require (
	github.com/GeertJohan/go.rice v0.0.0-20181229193832-0af3f3b09a0a
	github.com/daaku/go.zipexe v1.0.0 // indirect
	github.com/labstack/echo/v4 v4.0.0
)
